{
  "type": "File",
  "start": 0,
  "end": 506,
  "loc": {
    "start": {
      "line": 1,
      "column": 0
    },
    "end": {
      "line": 20,
      "column": 0
    }
  },
  "program": {
    "type": "Program",
    "start": 0,
    "end": 506,
    "loc": {
      "start": {
        "line": 1,
        "column": 0
      },
      "end": {
        "line": 20,
        "column": 0
      }
    },
    "sourceType": "module",
    "body": [
      {
        "type": "ImportDeclaration",
        "start": 0,
        "end": 26,
        "loc": {
          "start": {
            "line": 1,
            "column": 0
          },
          "end": {
            "line": 1,
            "column": 26
          }
        },
        "specifiers": [
          {
            "type": "ImportDefaultSpecifier",
            "start": 7,
            "end": 12,
            "loc": {
              "start": {
                "line": 1,
                "column": 7
              },
              "end": {
                "line": 1,
                "column": 12
              }
            },
            "local": {
              "type": "Identifier",
              "start": 7,
              "end": 12,
              "loc": {
                "start": {
                  "line": 1,
                  "column": 7
                },
                "end": {
                  "line": 1,
                  "column": 12
                },
                "identifierName": "React"
              },
              "name": "React"
            }
          }
        ],
        "source": {
          "type": "StringLiteral",
          "start": 18,
          "end": 25,
          "loc": {
            "start": {
              "line": 1,
              "column": 18
            },
            "end": {
              "line": 1,
              "column": 25
            }
          },
          "extra": {
            "rawValue": "react",
            "raw": "\"react\""
          },
          "value": "react"
        }
      },
      {
        "type": "ImportDeclaration",
        "start": 27,
        "end": 64,
        "loc": {
          "start": {
            "line": 2,
            "column": 0
          },
          "end": {
            "line": 2,
            "column": 37
          }
        },
        "specifiers": [
          {
            "type": "ImportSpecifier",
            "start": 36,
            "end": 41,
            "loc": {
              "start": {
                "line": 2,
                "column": 9
              },
              "end": {
                "line": 2,
                "column": 14
              }
            },
            "imported": {
              "type": "Identifier",
              "start": 36,
              "end": 41,
              "loc": {
                "start": {
                  "line": 2,
                  "column": 9
                },
                "end": {
                  "line": 2,
                  "column": 14
                },
                "identifierName": "Route"
              },
              "name": "Route"
            },
            "local": {
              "type": "Identifier",
              "start": 36,
              "end": 41,
              "loc": {
                "start": {
                  "line": 2,
                  "column": 9
                },
                "end": {
                  "line": 2,
                  "column": 14
                },
                "identifierName": "Route"
              },
              "name": "Route"
            }
          }
        ],
        "source": {
          "type": "StringLiteral",
          "start": 49,
          "end": 63,
          "loc": {
            "start": {
              "line": 2,
              "column": 22
            },
            "end": {
              "line": 2,
              "column": 36
            }
          },
          "extra": {
            "rawValue": "react-router",
            "raw": "\"react-router\""
          },
          "value": "react-router"
        }
      },
      {
        "type": "ImportDeclaration",
        "start": 65,
        "end": 114,
        "loc": {
          "start": {
            "line": 3,
            "column": 0
          },
          "end": {
            "line": 3,
            "column": 49
          }
        },
        "specifiers": [
          {
            "type": "ImportSpecifier",
            "start": 74,
            "end": 87,
            "loc": {
              "start": {
                "line": 3,
                "column": 9
              },
              "end": {
                "line": 3,
                "column": 22
              }
            },
            "imported": {
              "type": "Identifier",
              "start": 74,
              "end": 87,
              "loc": {
                "start": {
                  "line": 3,
                  "column": 9
                },
                "end": {
                  "line": 3,
                  "column": 22
                },
                "identifierName": "BrowserRouter"
              },
              "name": "BrowserRouter"
            },
            "local": {
              "type": "Identifier",
              "start": 74,
              "end": 87,
              "loc": {
                "start": {
                  "line": 3,
                  "column": 9
                },
                "end": {
                  "line": 3,
                  "column": 22
                },
                "identifierName": "BrowserRouter"
              },
              "name": "BrowserRouter"
            }
          }
        ],
        "source": {
          "type": "StringLiteral",
          "start": 95,
          "end": 113,
          "loc": {
            "start": {
              "line": 3,
              "column": 30
            },
            "end": {
              "line": 3,
              "column": 48
            }
          },
          "extra": {
            "rawValue": "react-router-dom",
            "raw": "\"react-router-dom\""
          },
          "value": "react-router-dom"
        }
      },
      {
        "type": "ImportDeclaration",
        "start": 115,
        "end": 159,
        "loc": {
          "start": {
            "line": 4,
            "column": 0
          },
          "end": {
            "line": 4,
            "column": 44
          }
        },
        "specifiers": [
          {
            "type": "ImportDefaultSpecifier",
            "start": 122,
            "end": 129,
            "loc": {
              "start": {
                "line": 4,
                "column": 7
              },
              "end": {
                "line": 4,
                "column": 14
              }
            },
            "local": {
              "type": "Identifier",
              "start": 122,
              "end": 129,
              "loc": {
                "start": {
                  "line": 4,
                  "column": 7
                },
                "end": {
                  "line": 4,
                  "column": 14
                },
                "identifierName": "Welcome"
              },
              "name": "Welcome"
            }
          }
        ],
        "source": {
          "type": "StringLiteral",
          "start": 135,
          "end": 158,
          "loc": {
            "start": {
              "line": 4,
              "column": 20
            },
            "end": {
              "line": 4,
              "column": 43
            }
          },
          "extra": {
            "rawValue": "../components/Welcome",
            "raw": "\"../components/Welcome\""
          },
          "value": "../components/Welcome"
        }
      },
      {
        "type": "ImportDeclaration",
        "start": 160,
        "end": 220,
        "loc": {
          "start": {
            "line": 5,
            "column": 0
          },
          "end": {
            "line": 5,
            "column": 60
          }
        },
        "specifiers": [
          {
            "type": "ImportDefaultSpecifier",
            "start": 167,
            "end": 174,
            "loc": {
              "start": {
                "line": 5,
                "column": 7
              },
              "end": {
                "line": 5,
                "column": 14
              }
            },
            "local": {
              "type": "Identifier",
              "start": 167,
              "end": 174,
              "loc": {
                "start": {
                  "line": 5,
                  "column": 7
                },
                "end": {
                  "line": 5,
                  "column": 14
                },
                "identifierName": "Winners"
              },
              "name": "Winners"
            }
          }
        ],
        "source": {
          "type": "StringLiteral",
          "start": 180,
          "end": 219,
          "loc": {
            "start": {
              "line": 5,
              "column": 20
            },
            "end": {
              "line": 5,
              "column": 59
            }
          },
          "extra": {
            "rawValue": "../components/winner/WinnersContainer",
            "raw": "\"../components/winner/WinnersContainer\""
          },
          "value": "../components/winner/WinnersContainer"
        },
        "trailingComments": [
          {
            "type": "CommentBlock",
            "value": "*\n * Router management for two different container screens\n ",
            "start": 221,
            "end": 285,
            "loc": {
              "start": {
                "line": 6,
                "column": 0
              },
              "end": {
                "line": 8,
                "column": 3
              }
            }
          }
        ]
      },
      {
        "type": "ExportDefaultDeclaration",
        "start": 286,
        "end": 505,
        "loc": {
          "start": {
            "line": 9,
            "column": 0
          },
          "end": {
            "line": 19,
            "column": 2
          }
        },
        "declaration": {
          "type": "ArrowFunctionExpression",
          "start": 301,
          "end": 504,
          "loc": {
            "start": {
              "line": 9,
              "column": 15
            },
            "end": {
              "line": 19,
              "column": 1
            }
          },
          "id": null,
          "generator": false,
          "expression": true,
          "async": false,
          "params": [],
          "body": {
            "type": "JSXElement",
            "start": 311,
            "end": 502,
            "loc": {
              "start": {
                "line": 10,
                "column": 2
              },
              "end": {
                "line": 18,
                "column": 18
              }
            },
            "openingElement": {
              "type": "JSXOpeningElement",
              "start": 311,
              "end": 326,
              "loc": {
                "start": {
                  "line": 10,
                  "column": 2
                },
                "end": {
                  "line": 10,
                  "column": 17
                }
              },
              "attributes": [],
              "name": {
                "type": "JSXIdentifier",
                "start": 312,
                "end": 325,
                "loc": {
                  "start": {
                    "line": 10,
                    "column": 3
                  },
                  "end": {
                    "line": 10,
                    "column": 16
                  }
                },
                "name": "BrowserRouter",
                "leadingComments": null
              },
              "selfClosing": false,
              "leadingComments": null
            },
            "closingElement": {
              "type": "JSXClosingElement",
              "start": 486,
              "end": 502,
              "loc": {
                "start": {
                  "line": 18,
                  "column": 2
                },
                "end": {
                  "line": 18,
                  "column": 18
                }
              },
              "name": {
                "type": "JSXIdentifier",
                "start": 488,
                "end": 501,
                "loc": {
                  "start": {
                    "line": 18,
                    "column": 4
                  },
                  "end": {
                    "line": 18,
                    "column": 17
                  }
                },
                "name": "BrowserRouter"
              }
            },
            "children": [
              {
                "type": "JSXText",
                "start": 326,
                "end": 331,
                "loc": {
                  "start": {
                    "line": 10,
                    "column": 17
                  },
                  "end": {
                    "line": 11,
                    "column": 4
                  }
                },
                "extra": null,
                "value": "\n    "
              },
              {
                "type": "JSXElement",
                "start": 331,
                "end": 434,
                "loc": {
                  "start": {
                    "line": 11,
                    "column": 4
                  },
                  "end": {
                    "line": 16,
                    "column": 6
                  }
                },
                "openingElement": {
                  "type": "JSXOpeningElement",
                  "start": 331,
                  "end": 434,
                  "loc": {
                    "start": {
                      "line": 11,
                      "column": 4
                    },
                    "end": {
                      "line": 16,
                      "column": 6
                    }
                  },
                  "attributes": [
                    {
                      "type": "JSXAttribute",
                      "start": 344,
                      "end": 365,
                      "loc": {
                        "start": {
                          "line": 12,
                          "column": 6
                        },
                        "end": {
                          "line": 12,
                          "column": 27
                        }
                      },
                      "name": {
                        "type": "JSXIdentifier",
                        "start": 344,
                        "end": 348,
                        "loc": {
                          "start": {
                            "line": 12,
                            "column": 6
                          },
                          "end": {
                            "line": 12,
                            "column": 10
                          }
                        },
                        "name": "path"
                      },
                      "value": {
                        "type": "StringLiteral",
                        "start": 349,
                        "end": 365,
                        "loc": {
                          "start": {
                            "line": 12,
                            "column": 11
                          },
                          "end": {
                            "line": 12,
                            "column": 27
                          }
                        },
                        "extra": null,
                        "value": "/seasons/:year"
                      }
                    },
                    {
                      "type": "JSXAttribute",
                      "start": 372,
                      "end": 427,
                      "loc": {
                        "start": {
                          "line": 13,
                          "column": 6
                        },
                        "end": {
                          "line": 15,
                          "column": 8
                        }
                      },
                      "name": {
                        "type": "JSXIdentifier",
                        "start": 372,
                        "end": 378,
                        "loc": {
                          "start": {
                            "line": 13,
                            "column": 6
                          },
                          "end": {
                            "line": 13,
                            "column": 12
                          }
                        },
                        "name": "render"
                      },
                      "value": {
                        "type": "JSXExpressionContainer",
                        "start": 379,
                        "end": 427,
                        "loc": {
                          "start": {
                            "line": 13,
                            "column": 13
                          },
                          "end": {
                            "line": 15,
                            "column": 8
                          }
                        },
                        "expression": {
                          "type": "ArrowFunctionExpression",
                          "start": 380,
                          "end": 426,
                          "loc": {
                            "start": {
                              "line": 13,
                              "column": 14
                            },
                            "end": {
                              "line": 15,
                              "column": 7
                            }
                          },
                          "id": null,
                          "generator": false,
                          "expression": false,
                          "async": false,
                          "params": [
                            {
                              "type": "Identifier",
                              "start": 380,
                              "end": 385,
                              "loc": {
                                "start": {
                                  "line": 13,
                                  "column": 14
                                },
                                "end": {
                                  "line": 13,
                                  "column": 19
                                },
                                "identifierName": "props"
                              },
                              "name": "props"
                            }
                          ],
                          "body": {
                            "type": "BlockStatement",
                            "start": 389,
                            "end": 426,
                            "loc": {
                              "start": {
                                "line": 13,
                                "column": 23
                              },
                              "end": {
                                "line": 15,
                                "column": 7
                              }
                            },
                            "body": [
                              {
                                "type": "ReturnStatement",
                                "start": 399,
                                "end": 418,
                                "loc": {
                                  "start": {
                                    "line": 14,
                                    "column": 8
                                  },
                                  "end": {
                                    "line": 14,
                                    "column": 27
                                  }
                                },
                                "argument": {
                                  "type": "JSXElement",
                                  "start": 406,
                                  "end": 417,
                                  "loc": {
                                    "start": {
                                      "line": 14,
                                      "column": 15
                                    },
                                    "end": {
                                      "line": 14,
                                      "column": 26
                                    }
                                  },
                                  "openingElement": {
                                    "type": "JSXOpeningElement",
                                    "start": 406,
                                    "end": 417,
                                    "loc": {
                                      "start": {
                                        "line": 14,
                                        "column": 15
                                      },
                                      "end": {
                                        "line": 14,
                                        "column": 26
                                      }
                                    },
                                    "attributes": [],
                                    "name": {
                                      "type": "JSXIdentifier",
                                      "start": 407,
                                      "end": 414,
                                      "loc": {
                                        "start": {
                                          "line": 14,
                                          "column": 16
                                        },
                                        "end": {
                                          "line": 14,
                                          "column": 23
                                        }
                                      },
                                      "name": "Winners"
                                    },
                                    "selfClosing": true
                                  },
                                  "closingElement": null,
                                  "children": []
                                }
                              }
                            ],
                            "directives": []
                          }
                        }
                      }
                    }
                  ],
                  "name": {
                    "type": "JSXIdentifier",
                    "start": 332,
                    "end": 337,
                    "loc": {
                      "start": {
                        "line": 11,
                        "column": 5
                      },
                      "end": {
                        "line": 11,
                        "column": 10
                      }
                    },
                    "name": "Route"
                  },
                  "selfClosing": true
                },
                "closingElement": null,
                "children": []
              },
              {
                "type": "JSXText",
                "start": 434,
                "end": 439,
                "loc": {
                  "start": {
                    "line": 16,
                    "column": 6
                  },
                  "end": {
                    "line": 17,
                    "column": 4
                  }
                },
                "extra": null,
                "value": "\n    "
              },
              {
                "type": "JSXElement",
                "start": 439,
                "end": 483,
                "loc": {
                  "start": {
                    "line": 17,
                    "column": 4
                  },
                  "end": {
                    "line": 17,
                    "column": 48
                  }
                },
                "openingElement": {
                  "type": "JSXOpeningElement",
                  "start": 439,
                  "end": 483,
                  "loc": {
                    "start": {
                      "line": 17,
                      "column": 4
                    },
                    "end": {
                      "line": 17,
                      "column": 48
                    }
                  },
                  "attributes": [
                    {
                      "type": "JSXAttribute",
                      "start": 446,
                      "end": 454,
                      "loc": {
                        "start": {
                          "line": 17,
                          "column": 11
                        },
                        "end": {
                          "line": 17,
                          "column": 19
                        }
                      },
                      "name": {
                        "type": "JSXIdentifier",
                        "start": 446,
                        "end": 450,
                        "loc": {
                          "start": {
                            "line": 17,
                            "column": 11
                          },
                          "end": {
                            "line": 17,
                            "column": 15
                          }
                        },
                        "name": "path"
                      },
                      "value": {
                        "type": "StringLiteral",
                        "start": 451,
                        "end": 454,
                        "loc": {
                          "start": {
                            "line": 17,
                            "column": 16
                          },
                          "end": {
                            "line": 17,
                            "column": 19
                          }
                        },
                        "extra": null,
                        "value": "/"
                      }
                    },
                    {
                      "type": "JSXAttribute",
                      "start": 455,
                      "end": 460,
                      "loc": {
                        "start": {
                          "line": 17,
                          "column": 20
                        },
                        "end": {
                          "line": 17,
                          "column": 25
                        }
                      },
                      "name": {
                        "type": "JSXIdentifier",
                        "start": 455,
                        "end": 460,
                        "loc": {
                          "start": {
                            "line": 17,
                            "column": 20
                          },
                          "end": {
                            "line": 17,
                            "column": 25
                          }
                        },
                        "name": "exact"
                      },
                      "value": null
                    },
                    {
                      "type": "JSXAttribute",
                      "start": 461,
                      "end": 480,
                      "loc": {
                        "start": {
                          "line": 17,
                          "column": 26
                        },
                        "end": {
                          "line": 17,
                          "column": 45
                        }
                      },
                      "name": {
                        "type": "JSXIdentifier",
                        "start": 461,
                        "end": 470,
                        "loc": {
                          "start": {
                            "line": 17,
                            "column": 26
                          },
                          "end": {
                            "line": 17,
                            "column": 35
                          }
                        },
                        "name": "component"
                      },
                      "value": {
                        "type": "JSXExpressionContainer",
                        "start": 471,
                        "end": 480,
                        "loc": {
                          "start": {
                            "line": 17,
                            "column": 36
                          },
                          "end": {
                            "line": 17,
                            "column": 45
                          }
                        },
                        "expression": {
                          "type": "Identifier",
                          "start": 472,
                          "end": 479,
                          "loc": {
                            "start": {
                              "line": 17,
                              "column": 37
                            },
                            "end": {
                              "line": 17,
                              "column": 44
                            },
                            "identifierName": "Welcome"
                          },
                          "name": "Welcome"
                        }
                      }
                    }
                  ],
                  "name": {
                    "type": "JSXIdentifier",
                    "start": 440,
                    "end": 445,
                    "loc": {
                      "start": {
                        "line": 17,
                        "column": 5
                      },
                      "end": {
                        "line": 17,
                        "column": 10
                      }
                    },
                    "name": "Route"
                  },
                  "selfClosing": true
                },
                "closingElement": null,
                "children": []
              },
              {
                "type": "JSXText",
                "start": 483,
                "end": 486,
                "loc": {
                  "start": {
                    "line": 17,
                    "column": 48
                  },
                  "end": {
                    "line": 18,
                    "column": 2
                  }
                },
                "extra": null,
                "value": "\n  "
              }
            ],
            "leadingComments": null,
            "extra": {
              "parenthesized": true,
              "parenStart": 307
            }
          },
          "leadingComments": [
            {
              "type": "CommentBlock",
              "value": "*\n * Router management for two different container screens\n ",
              "start": 221,
              "end": 285,
              "loc": {
                "start": {
                  "line": 6,
                  "column": 0
                },
                "end": {
                  "line": 8,
                  "column": 3
                }
              }
            }
          ],
          "trailingComments": []
        },
        "leadingComments": [
          {
            "type": "CommentBlock",
            "value": "*\n * Router management for two different container screens\n ",
            "start": 221,
            "end": 285,
            "loc": {
              "start": {
                "line": 6,
                "column": 0
              },
              "end": {
                "line": 8,
                "column": 3
              }
            }
          }
        ]
      }
    ],
    "directives": []
  },
  "comments": [
    {
      "type": "CommentBlock",
      "value": "*\n * Router management for two different container screens\n ",
      "start": 221,
      "end": 285,
      "loc": {
        "start": {
          "line": 6,
          "column": 0
        },
        "end": {
          "line": 8,
          "column": 3
        }
      }
    }
  ],
  "tokens": [
    {
      "type": {
        "label": "import",
        "keyword": "import",
        "beforeExpr": false,
        "startsExpr": true,
        "rightAssociative": false,
        "isLoop": false,
        "isAssign": false,
        "prefix": false,
        "postfix": false,
        "binop": null,
        "updateContext": null
      },
      "value": "import",
      "start": 0,
      "end": 6,
      "loc": {
        "start": {
          "line": 1,
          "column": 0
        },
        "end": {
          "line": 1,
          "column": 6
        }
      }
    },
    {
      "type": {
        "label": "name",
        "beforeExpr": false,
        "startsExpr": true,
        "rightAssociative": false,
        "isLoop": false,
        "isAssign": false,
        "prefix": false,
        "postfix": false,
        "binop": null
      },
      "value": "React",
      "start": 7,
      "end": 12,
      "loc": {
        "start": {
          "line": 1,
          "column": 7
        },
        "end": {
          "line": 1,
          "column": 12
        }
      }
    },
    {
      "type": {
        "label": "name",
        "beforeExpr": false,
        "startsExpr": true,
        "rightAssociative": false,
        "isLoop": false,
        "isAssign": false,
        "prefix": false,
        "postfix": false,
        "binop": null
      },
      "value": "from",
      "start": 13,
      "end": 17,
      "loc": {
        "start": {
          "line": 1,
          "column": 13
        },
        "end": {
          "line": 1,
          "column": 17
        }
      }
    },
    {
      "type": {
        "label": "string",
        "beforeExpr": false,
        "startsExpr": true,
        "rightAssociative": false,
        "isLoop": false,
        "isAssign": false,
        "prefix": false,
        "postfix": false,
        "binop": null,
        "updateContext": null
      },
      "value": "react",
      "start": 18,
      "end": 25,
      "loc": {
        "start": {
          "line": 1,
          "column": 18
        },
        "end": {
          "line": 1,
          "column": 25
        }
      }
    },
    {
      "type": {
        "label": ";",
        "beforeExpr": true,
        "startsExpr": false,
        "rightAssociative": false,
        "isLoop": false,
        "isAssign": false,
        "prefix": false,
        "postfix": false,
        "binop": null,
        "updateContext": null
      },
      "start": 25,
      "end": 26,
      "loc": {
        "start": {
          "line": 1,
          "column": 25
        },
        "end": {
          "line": 1,
          "column": 26
        }
      }
    },
    {
      "type": {
        "label": "import",
        "keyword": "import",
        "beforeExpr": false,
        "startsExpr": true,
        "rightAssociative": false,
        "isLoop": false,
        "isAssign": false,
        "prefix": false,
        "postfix": false,
        "binop": null,
        "updateContext": null
      },
      "value": "import",
      "start": 27,
      "end": 33,
      "loc": {
        "start": {
          "line": 2,
          "column": 0
        },
        "end": {
          "line": 2,
          "column": 6
        }
      }
    },
    {
      "type": {
        "label": "{",
        "beforeExpr": true,
        "startsExpr": true,
        "rightAssociative": false,
        "isLoop": false,
        "isAssign": false,
        "prefix": false,
        "postfix": false,
        "binop": null
      },
      "start": 34,
      "end": 35,
      "loc": {
        "start": {
          "line": 2,
          "column": 7
        },
        "end": {
          "line": 2,
          "column": 8
        }
      }
    },
    {
      "type": {
        "label": "name",
        "beforeExpr": false,
        "startsExpr": true,
        "rightAssociative": false,
        "isLoop": false,
        "isAssign": false,
        "prefix": false,
        "postfix": false,
        "binop": null
      },
      "value": "Route",
      "start": 36,
      "end": 41,
      "loc": {
        "start": {
          "line": 2,
          "column": 9
        },
        "end": {
          "line": 2,
          "column": 14
        }
      }
    },
    {
      "type": {
        "label": "}",
        "beforeExpr": false,
        "startsExpr": false,
        "rightAssociative": false,
        "isLoop": false,
        "isAssign": false,
        "prefix": false,
        "postfix": false,
        "binop": null
      },
      "start": 42,
      "end": 43,
      "loc": {
        "start": {
          "line": 2,
          "column": 15
        },
        "end": {
          "line": 2,
          "column": 16
        }
      }
    },
    {
      "type": {
        "label": "name",
        "beforeExpr": false,
        "startsExpr": true,
        "rightAssociative": false,
        "isLoop": false,
        "isAssign": false,
        "prefix": false,
        "postfix": false,
        "binop": null
      },
      "value": "from",
      "start": 44,
      "end": 48,
      "loc": {
        "start": {
          "line": 2,
          "column": 17
        },
        "end": {
          "line": 2,
          "column": 21
        }
      }
    },
    {
      "type": {
        "label": "string",
        "beforeExpr": false,
        "startsExpr": true,
        "rightAssociative": false,
        "isLoop": false,
        "isAssign": false,
        "prefix": false,
        "postfix": false,
        "binop": null,
        "updateContext": null
      },
      "value": "react-router",
      "start": 49,
      "end": 63,
      "loc": {
        "start": {
          "line": 2,
          "column": 22
        },
        "end": {
          "line": 2,
          "column": 36
        }
      }
    },
    {
      "type": {
        "label": ";",
        "beforeExpr": true,
        "startsExpr": false,
        "rightAssociative": false,
        "isLoop": false,
        "isAssign": false,
        "prefix": false,
        "postfix": false,
        "binop": null,
        "updateContext": null
      },
      "start": 63,
      "end": 64,
      "loc": {
        "start": {
          "line": 2,
          "column": 36
        },
        "end": {
          "line": 2,
          "column": 37
        }
      }
    },
    {
      "type": {
        "label": "import",
        "keyword": "import",
        "beforeExpr": false,
        "startsExpr": true,
        "rightAssociative": false,
        "isLoop": false,
        "isAssign": false,
        "prefix": false,
        "postfix": false,
        "binop": null,
        "updateContext": null
      },
      "value": "import",
      "start": 65,
      "end": 71,
      "loc": {
        "start": {
          "line": 3,
          "column": 0
        },
        "end": {
          "line": 3,
          "column": 6
        }
      }
    },
    {
      "type": {
        "label": "{",
        "beforeExpr": true,
        "startsExpr": true,
        "rightAssociative": false,
        "isLoop": false,
        "isAssign": false,
        "prefix": false,
        "postfix": false,
        "binop": null
      },
      "start": 72,
      "end": 73,
      "loc": {
        "start": {
          "line": 3,
          "column": 7
        },
        "end": {
          "line": 3,
          "column": 8
        }
      }
    },
    {
      "type": {
        "label": "name",
        "beforeExpr": false,
        "startsExpr": true,
        "rightAssociative": false,
        "isLoop": false,
        "isAssign": false,
        "prefix": false,
        "postfix": false,
        "binop": null
      },
      "value": "BrowserRouter",
      "start": 74,
      "end": 87,
      "loc": {
        "start": {
          "line": 3,
          "column": 9
        },
        "end": {
          "line": 3,
          "column": 22
        }
      }
    },
    {
      "type": {
        "label": "}",
        "beforeExpr": false,
        "startsExpr": false,
        "rightAssociative": false,
        "isLoop": false,
        "isAssign": false,
        "prefix": false,
        "postfix": false,
        "binop": null
      },
      "start": 88,
      "end": 89,
      "loc": {
        "start": {
          "line": 3,
          "column": 23
        },
        "end": {
          "line": 3,
          "column": 24
        }
      }
    },
    {
      "type": {
        "label": "name",
        "beforeExpr": false,
        "startsExpr": true,
        "rightAssociative": false,
        "isLoop": false,
        "isAssign": false,
        "prefix": false,
        "postfix": false,
        "binop": null
      },
      "value": "from",
      "start": 90,
      "end": 94,
      "loc": {
        "start": {
          "line": 3,
          "column": 25
        },
        "end": {
          "line": 3,
          "column": 29
        }
      }
    },
    {
      "type": {
        "label": "string",
        "beforeExpr": false,
        "startsExpr": true,
        "rightAssociative": false,
        "isLoop": false,
        "isAssign": false,
        "prefix": false,
        "postfix": false,
        "binop": null,
        "updateContext": null
      },
      "value": "react-router-dom",
      "start": 95,
      "end": 113,
      "loc": {
        "start": {
          "line": 3,
          "column": 30
        },
        "end": {
          "line": 3,
          "column": 48
        }
      }
    },
    {
      "type": {
        "label": ";",
        "beforeExpr": true,
        "startsExpr": false,
        "rightAssociative": false,
        "isLoop": false,
        "isAssign": false,
        "prefix": false,
        "postfix": false,
        "binop": null,
        "updateContext": null
      },
      "start": 113,
      "end": 114,
      "loc": {
        "start": {
          "line": 3,
          "column": 48
        },
        "end": {
          "line": 3,
          "column": 49
        }
      }
    },
    {
      "type": {
        "label": "import",
        "keyword": "import",
        "beforeExpr": false,
        "startsExpr": true,
        "rightAssociative": false,
        "isLoop": false,
        "isAssign": false,
        "prefix": false,
        "postfix": false,
        "binop": null,
        "updateContext": null
      },
      "value": "import",
      "start": 115,
      "end": 121,
      "loc": {
        "start": {
          "line": 4,
          "column": 0
        },
        "end": {
          "line": 4,
          "column": 6
        }
      }
    },
    {
      "type": {
        "label": "name",
        "beforeExpr": false,
        "startsExpr": true,
        "rightAssociative": false,
        "isLoop": false,
        "isAssign": false,
        "prefix": false,
        "postfix": false,
        "binop": null
      },
      "value": "Welcome",
      "start": 122,
      "end": 129,
      "loc": {
        "start": {
          "line": 4,
          "column": 7
        },
        "end": {
          "line": 4,
          "column": 14
        }
      }
    },
    {
      "type": {
        "label": "name",
        "beforeExpr": false,
        "startsExpr": true,
        "rightAssociative": false,
        "isLoop": false,
        "isAssign": false,
        "prefix": false,
        "postfix": false,
        "binop": null
      },
      "value": "from",
      "start": 130,
      "end": 134,
      "loc": {
        "start": {
          "line": 4,
          "column": 15
        },
        "end": {
          "line": 4,
          "column": 19
        }
      }
    },
    {
      "type": {
        "label": "string",
        "beforeExpr": false,
        "startsExpr": true,
        "rightAssociative": false,
        "isLoop": false,
        "isAssign": false,
        "prefix": false,
        "postfix": false,
        "binop": null,
        "updateContext": null
      },
      "value": "../components/Welcome",
      "start": 135,
      "end": 158,
      "loc": {
        "start": {
          "line": 4,
          "column": 20
        },
        "end": {
          "line": 4,
          "column": 43
        }
      }
    },
    {
      "type": {
        "label": ";",
        "beforeExpr": true,
        "startsExpr": false,
        "rightAssociative": false,
        "isLoop": false,
        "isAssign": false,
        "prefix": false,
        "postfix": false,
        "binop": null,
        "updateContext": null
      },
      "start": 158,
      "end": 159,
      "loc": {
        "start": {
          "line": 4,
          "column": 43
        },
        "end": {
          "line": 4,
          "column": 44
        }
      }
    },
    {
      "type": {
        "label": "import",
        "keyword": "import",
        "beforeExpr": false,
        "startsExpr": true,
        "rightAssociative": false,
        "isLoop": false,
        "isAssign": false,
        "prefix": false,
        "postfix": false,
        "binop": null,
        "updateContext": null
      },
      "value": "import",
      "start": 160,
      "end": 166,
      "loc": {
        "start": {
          "line": 5,
          "column": 0
        },
        "end": {
          "line": 5,
          "column": 6
        }
      }
    },
    {
      "type": {
        "label": "name",
        "beforeExpr": false,
        "startsExpr": true,
        "rightAssociative": false,
        "isLoop": false,
        "isAssign": false,
        "prefix": false,
        "postfix": false,
        "binop": null
      },
      "value": "Winners",
      "start": 167,
      "end": 174,
      "loc": {
        "start": {
          "line": 5,
          "column": 7
        },
        "end": {
          "line": 5,
          "column": 14
        }
      }
    },
    {
      "type": {
        "label": "name",
        "beforeExpr": false,
        "startsExpr": true,
        "rightAssociative": false,
        "isLoop": false,
        "isAssign": false,
        "prefix": false,
        "postfix": false,
        "binop": null
      },
      "value": "from",
      "start": 175,
      "end": 179,
      "loc": {
        "start": {
          "line": 5,
          "column": 15
        },
        "end": {
          "line": 5,
          "column": 19
        }
      }
    },
    {
      "type": {
        "label": "string",
        "beforeExpr": false,
        "startsExpr": true,
        "rightAssociative": false,
        "isLoop": false,
        "isAssign": false,
        "prefix": false,
        "postfix": false,
        "binop": null,
        "updateContext": null
      },
      "value": "../components/winner/WinnersContainer",
      "start": 180,
      "end": 219,
      "loc": {
        "start": {
          "line": 5,
          "column": 20
        },
        "end": {
          "line": 5,
          "column": 59
        }
      }
    },
    {
      "type": {
        "label": ";",
        "beforeExpr": true,
        "startsExpr": false,
        "rightAssociative": false,
        "isLoop": false,
        "isAssign": false,
        "prefix": false,
        "postfix": false,
        "binop": null,
        "updateContext": null
      },
      "start": 219,
      "end": 220,
      "loc": {
        "start": {
          "line": 5,
          "column": 59
        },
        "end": {
          "line": 5,
          "column": 60
        }
      }
    },
    {
      "type": "CommentBlock",
      "value": "*\n * Router management for two different container screens\n ",
      "start": 221,
      "end": 285,
      "loc": {
        "start": {
          "line": 6,
          "column": 0
        },
        "end": {
          "line": 8,
          "column": 3
        }
      }
    },
    {
      "type": {
        "label": "export",
        "keyword": "export",
        "beforeExpr": false,
        "startsExpr": false,
        "rightAssociative": false,
        "isLoop": false,
        "isAssign": false,
        "prefix": false,
        "postfix": false,
        "binop": null,
        "updateContext": null
      },
      "value": "export",
      "start": 286,
      "end": 292,
      "loc": {
        "start": {
          "line": 9,
          "column": 0
        },
        "end": {
          "line": 9,
          "column": 6
        }
      }
    },
    {
      "type": {
        "label": "default",
        "keyword": "default",
        "beforeExpr": true,
        "startsExpr": false,
        "rightAssociative": false,
        "isLoop": false,
        "isAssign": false,
        "prefix": false,
        "postfix": false,
        "binop": null,
        "updateContext": null
      },
      "value": "default",
      "start": 293,
      "end": 300,
      "loc": {
        "start": {
          "line": 9,
          "column": 7
        },
        "end": {
          "line": 9,
          "column": 14
        }
      }
    },
    {
      "type": {
        "label": "(",
        "beforeExpr": true,
        "startsExpr": true,
        "rightAssociative": false,
        "isLoop": false,
        "isAssign": false,
        "prefix": false,
        "postfix": false,
        "binop": null
      },
      "start": 301,
      "end": 302,
      "loc": {
        "start": {
          "line": 9,
          "column": 15
        },
        "end": {
          "line": 9,
          "column": 16
        }
      }
    },
    {
      "type": {
        "label": ")",
        "beforeExpr": false,
        "startsExpr": false,
        "rightAssociative": false,
        "isLoop": false,
        "isAssign": false,
        "prefix": false,
        "postfix": false,
        "binop": null
      },
      "start": 302,
      "end": 303,
      "loc": {
        "start": {
          "line": 9,
          "column": 16
        },
        "end": {
          "line": 9,
          "column": 17
        }
      }
    },
    {
      "type": {
        "label": "=>",
        "beforeExpr": true,
        "startsExpr": false,
        "rightAssociative": false,
        "isLoop": false,
        "isAssign": false,
        "prefix": false,
        "postfix": false,
        "binop": null,
        "updateContext": null
      },
      "start": 304,
      "end": 306,
      "loc": {
        "start": {
          "line": 9,
          "column": 18
        },
        "end": {
          "line": 9,
          "column": 20
        }
      }
    },
    {
      "type": {
        "label": "(",
        "beforeExpr": true,
        "startsExpr": true,
        "rightAssociative": false,
        "isLoop": false,
        "isAssign": false,
        "prefix": false,
        "postfix": false,
        "binop": null
      },
      "start": 307,
      "end": 308,
      "loc": {
        "start": {
          "line": 9,
          "column": 21
        },
        "end": {
          "line": 9,
          "column": 22
        }
      }
    },
    {
      "type": {
        "label": "jsxTagStart",
        "beforeExpr": false,
        "startsExpr": true,
        "rightAssociative": false,
        "isLoop": false,
        "isAssign": false,
        "prefix": false,
        "postfix": false,
        "binop": null
      },
      "start": 311,
      "end": 312,
      "loc": {
        "start": {
          "line": 10,
          "column": 2
        },
        "end": {
          "line": 10,
          "column": 3
        }
      }
    },
    {
      "type": {
        "label": "jsxName",
        "beforeExpr": false,
        "startsExpr": false,
        "rightAssociative": false,
        "isLoop": false,
        "isAssign": false,
        "prefix": false,
        "postfix": false,
        "binop": null,
        "updateContext": null
      },
      "value": "BrowserRouter",
      "start": 312,
      "end": 325,
      "loc": {
        "start": {
          "line": 10,
          "column": 3
        },
        "end": {
          "line": 10,
          "column": 16
        }
      }
    },
    {
      "type": {
        "label": "jsxTagEnd",
        "beforeExpr": false,
        "startsExpr": false,
        "rightAssociative": false,
        "isLoop": false,
        "isAssign": false,
        "prefix": false,
        "postfix": false,
        "binop": null
      },
      "start": 325,
      "end": 326,
      "loc": {
        "start": {
          "line": 10,
          "column": 16
        },
        "end": {
          "line": 10,
          "column": 17
        }
      }
    },
    {
      "type": {
        "label": "jsxText",
        "beforeExpr": true,
        "startsExpr": false,
        "rightAssociative": false,
        "isLoop": false,
        "isAssign": false,
        "prefix": false,
        "postfix": false,
        "binop": null,
        "updateContext": null
      },
      "value": "\n    ",
      "start": 326,
      "end": 331,
      "loc": {
        "start": {
          "line": 10,
          "column": 17
        },
        "end": {
          "line": 11,
          "column": 4
        }
      }
    },
    {
      "type": {
        "label": "jsxTagStart",
        "beforeExpr": false,
        "startsExpr": true,
        "rightAssociative": false,
        "isLoop": false,
        "isAssign": false,
        "prefix": false,
        "postfix": false,
        "binop": null
      },
      "start": 331,
      "end": 332,
      "loc": {
        "start": {
          "line": 11,
          "column": 4
        },
        "end": {
          "line": 11,
          "column": 5
        }
      }
    },
    {
      "type": {
        "label": "jsxName",
        "beforeExpr": false,
        "startsExpr": false,
        "rightAssociative": false,
        "isLoop": false,
        "isAssign": false,
        "prefix": false,
        "postfix": false,
        "binop": null,
        "updateContext": null
      },
      "value": "Route",
      "start": 332,
      "end": 337,
      "loc": {
        "start": {
          "line": 11,
          "column": 5
        },
        "end": {
          "line": 11,
          "column": 10
        }
      }
    },
    {
      "type": {
        "label": "jsxName",
        "beforeExpr": false,
        "startsExpr": false,
        "rightAssociative": false,
        "isLoop": false,
        "isAssign": false,
        "prefix": false,
        "postfix": false,
        "binop": null,
        "updateContext": null
      },
      "value": "path",
      "start": 344,
      "end": 348,
      "loc": {
        "start": {
          "line": 12,
          "column": 6
        },
        "end": {
          "line": 12,
          "column": 10
        }
      }
    },
    {
      "type": {
        "label": "=",
        "beforeExpr": true,
        "startsExpr": false,
        "rightAssociative": false,
        "isLoop": false,
        "isAssign": true,
        "prefix": false,
        "postfix": false,
        "binop": null,
        "updateContext": null
      },
      "value": "=",
      "start": 348,
      "end": 349,
      "loc": {
        "start": {
          "line": 12,
          "column": 10
        },
        "end": {
          "line": 12,
          "column": 11
        }
      }
    },
    {
      "type": {
        "label": "string",
        "beforeExpr": false,
        "startsExpr": true,
        "rightAssociative": false,
        "isLoop": false,
        "isAssign": false,
        "prefix": false,
        "postfix": false,
        "binop": null,
        "updateContext": null
      },
      "value": "/seasons/:year",
      "start": 349,
      "end": 365,
      "loc": {
        "start": {
          "line": 12,
          "column": 11
        },
        "end": {
          "line": 12,
          "column": 27
        }
      }
    },
    {
      "type": {
        "label": "jsxName",
        "beforeExpr": false,
        "startsExpr": false,
        "rightAssociative": false,
        "isLoop": false,
        "isAssign": false,
        "prefix": false,
        "postfix": false,
        "binop": null,
        "updateContext": null
      },
      "value": "render",
      "start": 372,
      "end": 378,
      "loc": {
        "start": {
          "line": 13,
          "column": 6
        },
        "end": {
          "line": 13,
          "column": 12
        }
      }
    },
    {
      "type": {
        "label": "=",
        "beforeExpr": true,
        "startsExpr": false,
        "rightAssociative": false,
        "isLoop": false,
        "isAssign": true,
        "prefix": false,
        "postfix": false,
        "binop": null,
        "updateContext": null
      },
      "value": "=",
      "start": 378,
      "end": 379,
      "loc": {
        "start": {
          "line": 13,
          "column": 12
        },
        "end": {
          "line": 13,
          "column": 13
        }
      }
    },
    {
      "type": {
        "label": "{",
        "beforeExpr": true,
        "startsExpr": true,
        "rightAssociative": false,
        "isLoop": false,
        "isAssign": false,
        "prefix": false,
        "postfix": false,
        "binop": null
      },
      "start": 379,
      "end": 380,
      "loc": {
        "start": {
          "line": 13,
          "column": 13
        },
        "end": {
          "line": 13,
          "column": 14
        }
      }
    },
    {
      "type": {
        "label": "name",
        "beforeExpr": false,
        "startsExpr": true,
        "rightAssociative": false,
        "isLoop": false,
        "isAssign": false,
        "prefix": false,
        "postfix": false,
        "binop": null
      },
      "value": "props",
      "start": 380,
      "end": 385,
      "loc": {
        "start": {
          "line": 13,
          "column": 14
        },
        "end": {
          "line": 13,
          "column": 19
        }
      }
    },
    {
      "type": {
        "label": "=>",
        "beforeExpr": true,
        "startsExpr": false,
        "rightAssociative": false,
        "isLoop": false,
        "isAssign": false,
        "prefix": false,
        "postfix": false,
        "binop": null,
        "updateContext": null
      },
      "start": 386,
      "end": 388,
      "loc": {
        "start": {
          "line": 13,
          "column": 20
        },
        "end": {
          "line": 13,
          "column": 22
        }
      }
    },
    {
      "type": {
        "label": "{",
        "beforeExpr": true,
        "startsExpr": true,
        "rightAssociative": false,
        "isLoop": false,
        "isAssign": false,
        "prefix": false,
        "postfix": false,
        "binop": null
      },
      "start": 389,
      "end": 390,
      "loc": {
        "start": {
          "line": 13,
          "column": 23
        },
        "end": {
          "line": 13,
          "column": 24
        }
      }
    },
    {
      "type": {
        "label": "return",
        "keyword": "return",
        "beforeExpr": true,
        "startsExpr": false,
        "rightAssociative": false,
        "isLoop": false,
        "isAssign": false,
        "prefix": false,
        "postfix": false,
        "binop": null,
        "updateContext": null
      },
      "value": "return",
      "start": 399,
      "end": 405,
      "loc": {
        "start": {
          "line": 14,
          "column": 8
        },
        "end": {
          "line": 14,
          "column": 14
        }
      }
    },
    {
      "type": {
        "label": "jsxTagStart",
        "beforeExpr": false,
        "startsExpr": true,
        "rightAssociative": false,
        "isLoop": false,
        "isAssign": false,
        "prefix": false,
        "postfix": false,
        "binop": null
      },
      "start": 406,
      "end": 407,
      "loc": {
        "start": {
          "line": 14,
          "column": 15
        },
        "end": {
          "line": 14,
          "column": 16
        }
      }
    },
    {
      "type": {
        "label": "jsxName",
        "beforeExpr": false,
        "startsExpr": false,
        "rightAssociative": false,
        "isLoop": false,
        "isAssign": false,
        "prefix": false,
        "postfix": false,
        "binop": null,
        "updateContext": null
      },
      "value": "Winners",
      "start": 407,
      "end": 414,
      "loc": {
        "start": {
          "line": 14,
          "column": 16
        },
        "end": {
          "line": 14,
          "column": 23
        }
      }
    },
    {
      "type": {
        "label": "/",
        "beforeExpr": true,
        "startsExpr": false,
        "rightAssociative": false,
        "isLoop": false,
        "isAssign": false,
        "prefix": false,
        "postfix": false,
        "binop": 10,
        "updateContext": null
      },
      "value": "/",
      "start": 415,
      "end": 416,
      "loc": {
        "start": {
          "line": 14,
          "column": 24
        },
        "end": {
          "line": 14,
          "column": 25
        }
      }
    },
    {
      "type": {
        "label": "jsxTagEnd",
        "beforeExpr": false,
        "startsExpr": false,
        "rightAssociative": false,
        "isLoop": false,
        "isAssign": false,
        "prefix": false,
        "postfix": false,
        "binop": null
      },
      "start": 416,
      "end": 417,
      "loc": {
        "start": {
          "line": 14,
          "column": 25
        },
        "end": {
          "line": 14,
          "column": 26
        }
      }
    },
    {
      "type": {
        "label": ";",
        "beforeExpr": true,
        "startsExpr": false,
        "rightAssociative": false,
        "isLoop": false,
        "isAssign": false,
        "prefix": false,
        "postfix": false,
        "binop": null,
        "updateContext": null
      },
      "start": 417,
      "end": 418,
      "loc": {
        "start": {
          "line": 14,
          "column": 26
        },
        "end": {
          "line": 14,
          "column": 27
        }
      }
    },
    {
      "type": {
        "label": "}",
        "beforeExpr": false,
        "startsExpr": false,
        "rightAssociative": false,
        "isLoop": false,
        "isAssign": false,
        "prefix": false,
        "postfix": false,
        "binop": null
      },
      "start": 425,
      "end": 426,
      "loc": {
        "start": {
          "line": 15,
          "column": 6
        },
        "end": {
          "line": 15,
          "column": 7
        }
      }
    },
    {
      "type": {
        "label": "}",
        "beforeExpr": false,
        "startsExpr": false,
        "rightAssociative": false,
        "isLoop": false,
        "isAssign": false,
        "prefix": false,
        "postfix": false,
        "binop": null
      },
      "start": 426,
      "end": 427,
      "loc": {
        "start": {
          "line": 15,
          "column": 7
        },
        "end": {
          "line": 15,
          "column": 8
        }
      }
    },
    {
      "type": {
        "label": "/",
        "beforeExpr": true,
        "startsExpr": false,
        "rightAssociative": false,
        "isLoop": false,
        "isAssign": false,
        "prefix": false,
        "postfix": false,
        "binop": 10,
        "updateContext": null
      },
      "value": "/",
      "start": 432,
      "end": 433,
      "loc": {
        "start": {
          "line": 16,
          "column": 4
        },
        "end": {
          "line": 16,
          "column": 5
        }
      }
    },
    {
      "type": {
        "label": "jsxTagEnd",
        "beforeExpr": false,
        "startsExpr": false,
        "rightAssociative": false,
        "isLoop": false,
        "isAssign": false,
        "prefix": false,
        "postfix": false,
        "binop": null
      },
      "start": 433,
      "end": 434,
      "loc": {
        "start": {
          "line": 16,
          "column": 5
        },
        "end": {
          "line": 16,
          "column": 6
        }
      }
    },
    {
      "type": {
        "label": "jsxText",
        "beforeExpr": true,
        "startsExpr": false,
        "rightAssociative": false,
        "isLoop": false,
        "isAssign": false,
        "prefix": false,
        "postfix": false,
        "binop": null,
        "updateContext": null
      },
      "value": "\n    ",
      "start": 434,
      "end": 439,
      "loc": {
        "start": {
          "line": 16,
          "column": 6
        },
        "end": {
          "line": 17,
          "column": 4
        }
      }
    },
    {
      "type": {
        "label": "jsxTagStart",
        "beforeExpr": false,
        "startsExpr": true,
        "rightAssociative": false,
        "isLoop": false,
        "isAssign": false,
        "prefix": false,
        "postfix": false,
        "binop": null
      },
      "start": 439,
      "end": 440,
      "loc": {
        "start": {
          "line": 17,
          "column": 4
        },
        "end": {
          "line": 17,
          "column": 5
        }
      }
    },
    {
      "type": {
        "label": "jsxName",
        "beforeExpr": false,
        "startsExpr": false,
        "rightAssociative": false,
        "isLoop": false,
        "isAssign": false,
        "prefix": false,
        "postfix": false,
        "binop": null,
        "updateContext": null
      },
      "value": "Route",
      "start": 440,
      "end": 445,
      "loc": {
        "start": {
          "line": 17,
          "column": 5
        },
        "end": {
          "line": 17,
          "column": 10
        }
      }
    },
    {
      "type": {
        "label": "jsxName",
        "beforeExpr": false,
        "startsExpr": false,
        "rightAssociative": false,
        "isLoop": false,
        "isAssign": false,
        "prefix": false,
        "postfix": false,
        "binop": null,
        "updateContext": null
      },
      "value": "path",
      "start": 446,
      "end": 450,
      "loc": {
        "start": {
          "line": 17,
          "column": 11
        },
        "end": {
          "line": 17,
          "column": 15
        }
      }
    },
    {
      "type": {
        "label": "=",
        "beforeExpr": true,
        "startsExpr": false,
        "rightAssociative": false,
        "isLoop": false,
        "isAssign": true,
        "prefix": false,
        "postfix": false,
        "binop": null,
        "updateContext": null
      },
      "value": "=",
      "start": 450,
      "end": 451,
      "loc": {
        "start": {
          "line": 17,
          "column": 15
        },
        "end": {
          "line": 17,
          "column": 16
        }
      }
    },
    {
      "type": {
        "label": "string",
        "beforeExpr": false,
        "startsExpr": true,
        "rightAssociative": false,
        "isLoop": false,
        "isAssign": false,
        "prefix": false,
        "postfix": false,
        "binop": null,
        "updateContext": null
      },
      "value": "/",
      "start": 451,
      "end": 454,
      "loc": {
        "start": {
          "line": 17,
          "column": 16
        },
        "end": {
          "line": 17,
          "column": 19
        }
      }
    },
    {
      "type": {
        "label": "jsxName",
        "beforeExpr": false,
        "startsExpr": false,
        "rightAssociative": false,
        "isLoop": false,
        "isAssign": false,
        "prefix": false,
        "postfix": false,
        "binop": null,
        "updateContext": null
      },
      "value": "exact",
      "start": 455,
      "end": 460,
      "loc": {
        "start": {
          "line": 17,
          "column": 20
        },
        "end": {
          "line": 17,
          "column": 25
        }
      }
    },
    {
      "type": {
        "label": "jsxName",
        "beforeExpr": false,
        "startsExpr": false,
        "rightAssociative": false,
        "isLoop": false,
        "isAssign": false,
        "prefix": false,
        "postfix": false,
        "binop": null,
        "updateContext": null
      },
      "value": "component",
      "start": 461,
      "end": 470,
      "loc": {
        "start": {
          "line": 17,
          "column": 26
        },
        "end": {
          "line": 17,
          "column": 35
        }
      }
    },
    {
      "type": {
        "label": "=",
        "beforeExpr": true,
        "startsExpr": false,
        "rightAssociative": false,
        "isLoop": false,
        "isAssign": true,
        "prefix": false,
        "postfix": false,
        "binop": null,
        "updateContext": null
      },
      "value": "=",
      "start": 470,
      "end": 471,
      "loc": {
        "start": {
          "line": 17,
          "column": 35
        },
        "end": {
          "line": 17,
          "column": 36
        }
      }
    },
    {
      "type": {
        "label": "{",
        "beforeExpr": true,
        "startsExpr": true,
        "rightAssociative": false,
        "isLoop": false,
        "isAssign": false,
        "prefix": false,
        "postfix": false,
        "binop": null
      },
      "start": 471,
      "end": 472,
      "loc": {
        "start": {
          "line": 17,
          "column": 36
        },
        "end": {
          "line": 17,
          "column": 37
        }
      }
    },
    {
      "type": {
        "label": "name",
        "beforeExpr": false,
        "startsExpr": true,
        "rightAssociative": false,
        "isLoop": false,
        "isAssign": false,
        "prefix": false,
        "postfix": false,
        "binop": null
      },
      "value": "Welcome",
      "start": 472,
      "end": 479,
      "loc": {
        "start": {
          "line": 17,
          "column": 37
        },
        "end": {
          "line": 17,
          "column": 44
        }
      }
    },
    {
      "type": {
        "label": "}",
        "beforeExpr": false,
        "startsExpr": false,
        "rightAssociative": false,
        "isLoop": false,
        "isAssign": false,
        "prefix": false,
        "postfix": false,
        "binop": null
      },
      "start": 479,
      "end": 480,
      "loc": {
        "start": {
          "line": 17,
          "column": 44
        },
        "end": {
          "line": 17,
          "column": 45
        }
      }
    },
    {
      "type": {
        "label": "/",
        "beforeExpr": true,
        "startsExpr": false,
        "rightAssociative": false,
        "isLoop": false,
        "isAssign": false,
        "prefix": false,
        "postfix": false,
        "binop": 10,
        "updateContext": null
      },
      "value": "/",
      "start": 481,
      "end": 482,
      "loc": {
        "start": {
          "line": 17,
          "column": 46
        },
        "end": {
          "line": 17,
          "column": 47
        }
      }
    },
    {
      "type": {
        "label": "jsxTagEnd",
        "beforeExpr": false,
        "startsExpr": false,
        "rightAssociative": false,
        "isLoop": false,
        "isAssign": false,
        "prefix": false,
        "postfix": false,
        "binop": null
      },
      "start": 482,
      "end": 483,
      "loc": {
        "start": {
          "line": 17,
          "column": 47
        },
        "end": {
          "line": 17,
          "column": 48
        }
      }
    },
    {
      "type": {
        "label": "jsxText",
        "beforeExpr": true,
        "startsExpr": false,
        "rightAssociative": false,
        "isLoop": false,
        "isAssign": false,
        "prefix": false,
        "postfix": false,
        "binop": null,
        "updateContext": null
      },
      "value": "\n  ",
      "start": 483,
      "end": 486,
      "loc": {
        "start": {
          "line": 17,
          "column": 48
        },
        "end": {
          "line": 18,
          "column": 2
        }
      }
    },
    {
      "type": {
        "label": "jsxTagStart",
        "beforeExpr": false,
        "startsExpr": true,
        "rightAssociative": false,
        "isLoop": false,
        "isAssign": false,
        "prefix": false,
        "postfix": false,
        "binop": null
      },
      "start": 486,
      "end": 487,
      "loc": {
        "start": {
          "line": 18,
          "column": 2
        },
        "end": {
          "line": 18,
          "column": 3
        }
      }
    },
    {
      "type": {
        "label": "/",
        "beforeExpr": true,
        "startsExpr": false,
        "rightAssociative": false,
        "isLoop": false,
        "isAssign": false,
        "prefix": false,
        "postfix": false,
        "binop": 10,
        "updateContext": null
      },
      "value": "/",
      "start": 487,
      "end": 488,
      "loc": {
        "start": {
          "line": 18,
          "column": 3
        },
        "end": {
          "line": 18,
          "column": 4
        }
      }
    },
    {
      "type": {
        "label": "jsxName",
        "beforeExpr": false,
        "startsExpr": false,
        "rightAssociative": false,
        "isLoop": false,
        "isAssign": false,
        "prefix": false,
        "postfix": false,
        "binop": null,
        "updateContext": null
      },
      "value": "BrowserRouter",
      "start": 488,
      "end": 501,
      "loc": {
        "start": {
          "line": 18,
          "column": 4
        },
        "end": {
          "line": 18,
          "column": 17
        }
      }
    },
    {
      "type": {
        "label": "jsxTagEnd",
        "beforeExpr": false,
        "startsExpr": false,
        "rightAssociative": false,
        "isLoop": false,
        "isAssign": false,
        "prefix": false,
        "postfix": false,
        "binop": null
      },
      "start": 501,
      "end": 502,
      "loc": {
        "start": {
          "line": 18,
          "column": 17
        },
        "end": {
          "line": 18,
          "column": 18
        }
      }
    },
    {
      "type": {
        "label": ")",
        "beforeExpr": false,
        "startsExpr": false,
        "rightAssociative": false,
        "isLoop": false,
        "isAssign": false,
        "prefix": false,
        "postfix": false,
        "binop": null
      },
      "start": 503,
      "end": 504,
      "loc": {
        "start": {
          "line": 19,
          "column": 0
        },
        "end": {
          "line": 19,
          "column": 1
        }
      }
    },
    {
      "type": {
        "label": ";",
        "beforeExpr": true,
        "startsExpr": false,
        "rightAssociative": false,
        "isLoop": false,
        "isAssign": false,
        "prefix": false,
        "postfix": false,
        "binop": null,
        "updateContext": null
      },
      "start": 504,
      "end": 505,
      "loc": {
        "start": {
          "line": 19,
          "column": 1
        },
        "end": {
          "line": 19,
          "column": 2
        }
      }
    },
    {
      "type": {
        "label": "eof",
        "beforeExpr": false,
        "startsExpr": false,
        "rightAssociative": false,
        "isLoop": false,
        "isAssign": false,
        "prefix": false,
        "postfix": false,
        "binop": null,
        "updateContext": null
      },
      "start": 506,
      "end": 506,
      "loc": {
        "start": {
          "line": 20,
          "column": 0
        },
        "end": {
          "line": 20,
          "column": 0
        }
      }
    }
  ]
}